-40 -32 -24 -8 -24 -40 -40 -48 -24 -40 -40 -24 512
-16 -40 -24 -24 -40 -32 -40 -16 -32 -48 -32 -40 -32 -16 -48 392
992
-16 -48 -32 -16 -16 -40 -8 -32 -32 -40 -8 -24 -48 528
-24 -32 -16 -8 -40 -8 -40 -16 -40 -8 -24 648
-8 -16 -32 -16 -16 -24 -8 -16 -40 -16 720
-16 -32 -8 -8 -32 -8 -40 -48 -24 -24 -48 -32 -8 -48 504
-32 -24 -16 -8 -48 -16 -40 -40 -40 -32 -48 -24 -48 -8 -8 -24 408
-24 -32 -24 -8 -8 -16 -40 -24 -32 -32 -40 -8 -24 -32 -32 -24 464
-24 -48 -48 -8 -40 -48 -24 -24 -32 -40 -40 528
-8 -16 -40 -8 -24 -32 -32 -48 -48 -24 -8 616
-24 -16 -16 -8 -32 -40 -32 -40 -24 -48 -8 -48 -16 -40 -16 464
-8 -8 -8 -8 -8 -8 -800 88
-400 400 -80 88
